info face="Fixedsys" size=32 bold=0 italic=0 charset="" unicode=1 stretchH=100 smooth=1 aa=1 padding=1,1,1,1 spacing=0,0 outline=0
common lineHeight=30 base=24 scaleW=256 scaleH=128 pages=1 packed=0 alphaChnl=0 redChnl=4 greenChnl=4 blueChnl=4
page id=0 file="fixedsys_num_large_0.png"
chars count=14
char id=44   x=0     y=0     width=18    height=32    xoffset=-1    yoffset=-1    xadvance=16    page=0  chnl=15
char id=45   x=18    y=0     width=18    height=32    xoffset=-1    yoffset=-1    xadvance=16    page=0  chnl=15
char id=46   x=36    y=0     width=18    height=32    xoffset=-1    yoffset=-1    xadvance=16    page=0  chnl=15
char id=48   x=54    y=0     width=18    height=32    xoffset=-1    yoffset=-1    xadvance=16    page=0  chnl=15
char id=49   x=72    y=0     width=18    height=32    xoffset=-1    yoffset=-1    xadvance=16    page=0  chnl=15
char id=50   x=90    y=0     width=18    height=32    xoffset=-1    yoffset=-1    xadvance=16    page=0  chnl=15
char id=51   x=108   y=0     width=18    height=32    xoffset=-1    yoffset=-1    xadvance=16    page=0  chnl=15
char id=52   x=126   y=0     width=18    height=32    xoffset=-1    yoffset=-1    xadvance=16    page=0  chnl=15
char id=53   x=144   y=0     width=18    height=32    xoffset=-1    yoffset=-1    xadvance=16    page=0  chnl=15
char id=54   x=162   y=0     width=18    height=32    xoffset=-1    yoffset=-1    xadvance=16    page=0  chnl=15
char id=55   x=180   y=0     width=18    height=32    xoffset=-1    yoffset=-1    xadvance=16    page=0  chnl=15
char id=56   x=198   y=0     width=18    height=32    xoffset=-1    yoffset=-1    xadvance=16    page=0  chnl=15
char id=57   x=216   y=0     width=18    height=32    xoffset=-1    yoffset=-1    xadvance=16    page=0  chnl=15
char id=58   x=234   y=0     width=18    height=32    xoffset=-1    yoffset=-1    xadvance=16    page=0  chnl=15
